%YAML 1.1
%TAG !u! tag:unity3d.com,2011:
--- !u!114 &11400000
MonoBehaviour:
  m_ObjectHideFlags: 0
  m_CorrespondingSourceObject: {fileID: 0}
  m_PrefabInstance: {fileID: 0}
  m_PrefabAsset: {fileID: 0}
  m_GameObject: {fileID: 0}
  m_Enabled: 1
  m_EditorHideFlags: 0
  m_Script: {fileID: 11500000, guid: 76dd4c557f9743649b70874be0a60d4b, type: 3}
  m_Name: AIMeleeStatusEffects
  m_EditorClassIdentifier: 
  SpeedMods:
  - Condition: 1
    Modifier: 0.8
  - Condition: 5
    Modifier: 0
  - Condition: 2
    Modifier: 0.7
  - Condition: 4
    Modifier: 0.8
