%YAML 1.1
%TAG !u! tag:unity3d.com,2011:
--- !u!114 &11400000
MonoBehaviour:
  m_ObjectHideFlags: 0
  m_CorrespondingSourceObject: {fileID: 0}
  m_PrefabInstance: {fileID: 0}
  m_PrefabAsset: {fileID: 0}
  m_GameObject: {fileID: 0}
  m_Enabled: 1
  m_EditorHideFlags: 0
  m_Script: {fileID: 11500000, guid: 192841e5983e64c478618d0a85ed3890, type: 3}
  m_Name: DefaultEnemyWeights
  m_EditorClassIdentifier: 
  enemyCosts:
  - AIPrefab: {fileID: 2131618387541879926, guid: fd9c34c859349c0469548a1cf6064919,
      type: 3}
    Cost: 1
  - AIPrefab: {fileID: 8673613746451076787, guid: f405f8a9a2c28ef42a2b02cfb36ab5a2,
      type: 3}
    Cost: 3
  - AIPrefab: {fileID: 5433258074216957909, guid: 558e297f070cf504dba46c2786cfcd44,
      type: 3}
    Cost: 3
  - AIPrefab: {fileID: 162538342889289228, guid: bc2cdd7a35ceef3459751861650f5e0d,
      type: 3}
    Cost: 10
