{
    "name": "_UtilityEditorDefinition",
    "rootNamespace": "",
    "references": [
        "GUID:2bafac87e7f4b9b418d9448d219b01ab"
    ],
    "includePlatforms": [
        "Editor"
    ],
    "excludePlatforms": [],
    "allowUnsafeCode": false,
    "overrideReferences": true,
    "precompiledReferences": [
        "DOTween.dll",
        "Newtonsoft.Json.dll",
        "protobuf-net.dll",
        "DOTweenEditor.dll"
    ],
    "autoReferenced": true,
    "defineConstraints": [],
    "versionDefines": [],
    "noEngineReferences": false
}