%YAML 1.1
%TAG !u! tag:unity3d.com,2011:
--- !u!74 &7400000
AnimationClip:
  m_ObjectHideFlags: 0
  m_CorrespondingSourceObject: {fileID: 0}
  m_PrefabInstance: {fileID: 0}
  m_PrefabAsset: {fileID: 0}
  m_Name: Cultist_Attack
  serializedVersion: 6
  m_Legacy: 0
  m_Compressed: 0
  m_UseHighQualityCurve: 1
  m_RotationCurves: []
  m_CompressedRotationCurves: []
  m_EulerCurves: []
  m_PositionCurves: []
  m_ScaleCurves: []
  m_FloatCurves: []
  m_PPtrCurves:
  - curve:
    - time: 0
      value: {fileID: 21300000, guid: 72b5e7787b60ae7418b6f3242feb9fc4, type: 3}
    - time: 0.016666668
      value: {fileID: 21300000, guid: 802978b509030dd4180ece3ac6bb7f2c, type: 3}
    - time: 0.033333335
      value: {fileID: 21300000, guid: 3ecaf57e9717d27438ed05fbe4a36031, type: 3}
    - time: 0.05
      value: {fileID: 21300000, guid: 38677867911110845ae0793840c5de8e, type: 3}
    - time: 0.06666667
      value: {fileID: 21300000, guid: 7bee71f38c3840942b620e6099e18e48, type: 3}
    - time: 0.083333336
      value: {fileID: 21300000, guid: c1319c2bf452c9c4a9a9fa4bc98d03fd, type: 3}
    - time: 0.1
      value: {fileID: 21300000, guid: 75ef6a2a8a66a3a4ea05cd2a271c6791, type: 3}
    - time: 0.11666667
      value: {fileID: 21300000, guid: 6027fc13c0521a94fb8a365a3147add1, type: 3}
    - time: 0.13333334
      value: {fileID: 21300000, guid: 53c9d860d126fe94cabcff3d9b9f56af, type: 3}
    - time: 0.15
      value: {fileID: 21300000, guid: 6c582e6056c0443459426519c8faf624, type: 3}
    - time: 0.16666667
      value: {fileID: 21300000, guid: a682e99afbb3abc48bb4e2b03777d079, type: 3}
    - time: 0.18333334
      value: {fileID: 21300000, guid: b2eee740be0bb634db2156164fd78037, type: 3}
    - time: 0.2
      value: {fileID: 21300000, guid: c03b50bc077cd5445a198ed01c286fc4, type: 3}
    - time: 0.21666667
      value: {fileID: 21300000, guid: 07647dd74f28fb44c827d7c359892572, type: 3}
    - time: 0.23333333
      value: {fileID: 21300000, guid: 76dcc4946a3653f4688d921447035117, type: 3}
    attribute: m_Sprite
    path: 
    classID: 212
    script: {fileID: 0}
  m_SampleRate: 60
  m_WrapMode: 0
  m_Bounds:
    m_Center: {x: 0, y: 0, z: 0}
    m_Extent: {x: 0, y: 0, z: 0}
  m_ClipBindingConstant:
    genericBindings:
    - serializedVersion: 2
      path: 0
      attribute: 0
      script: {fileID: 0}
      typeID: 212
      customType: 23
      isPPtrCurve: 1
    pptrCurveMapping:
    - {fileID: 21300000, guid: 72b5e7787b60ae7418b6f3242feb9fc4, type: 3}
    - {fileID: 21300000, guid: 802978b509030dd4180ece3ac6bb7f2c, type: 3}
    - {fileID: 21300000, guid: 3ecaf57e9717d27438ed05fbe4a36031, type: 3}
    - {fileID: 21300000, guid: 38677867911110845ae0793840c5de8e, type: 3}
    - {fileID: 21300000, guid: 7bee71f38c3840942b620e6099e18e48, type: 3}
    - {fileID: 21300000, guid: c1319c2bf452c9c4a9a9fa4bc98d03fd, type: 3}
    - {fileID: 21300000, guid: 75ef6a2a8a66a3a4ea05cd2a271c6791, type: 3}
    - {fileID: 21300000, guid: 6027fc13c0521a94fb8a365a3147add1, type: 3}
    - {fileID: 21300000, guid: 53c9d860d126fe94cabcff3d9b9f56af, type: 3}
    - {fileID: 21300000, guid: 6c582e6056c0443459426519c8faf624, type: 3}
    - {fileID: 21300000, guid: a682e99afbb3abc48bb4e2b03777d079, type: 3}
    - {fileID: 21300000, guid: b2eee740be0bb634db2156164fd78037, type: 3}
    - {fileID: 21300000, guid: c03b50bc077cd5445a198ed01c286fc4, type: 3}
    - {fileID: 21300000, guid: 07647dd74f28fb44c827d7c359892572, type: 3}
    - {fileID: 21300000, guid: 76dcc4946a3653f4688d921447035117, type: 3}
  m_AnimationClipSettings:
    serializedVersion: 2
    m_AdditiveReferencePoseClip: {fileID: 0}
    m_AdditiveReferencePoseTime: 0
    m_StartTime: 0
    m_StopTime: 0.25
    m_OrientationOffsetY: 0
    m_Level: 0
    m_CycleOffset: 0
    m_HasAdditiveReferencePose: 0
    m_LoopTime: 0
    m_LoopBlend: 0
    m_LoopBlendOrientation: 0
    m_LoopBlendPositionY: 0
    m_LoopBlendPositionXZ: 0
    m_KeepOriginalOrientation: 0
    m_KeepOriginalPositionY: 1
    m_KeepOriginalPositionXZ: 0
    m_HeightFromFeet: 0
    m_Mirror: 0
  m_EditorCurves: []
  m_EulerEditorCurves: []
  m_HasGenericRootTransform: 0
  m_HasMotionFloatCurves: 0
  m_Events: []
